…
**Show counts of position titles for all staff**

``` r
faculty_df %>% 
  group_by(Position) %>% 
  tally() %>% 
  arrange(desc(n))
```

    ## # A tibble: 75 x 2
    ##    Position                n
    ##    <fct>               <int>
    ##  1 Professor            1137
    ##  2 Assistant Professor   538
    ##  3 Associate Professor   413
    ##  4 Lecturer              297
    ##  5 Faculty Associate     188
    ##  6 Assoc Lecturer        166
    ##  7 Senior Lecturer       122
    ##  8 Assoc Faculty Assoc   116
    ##  9 Clinical Instructor    95
    ## 10 Clinical Asst Prof     81
    ## # … with 65 more rows

**Show counts of departments for all staff**

``` r
faculty_df %>% 
  group_by(Department) %>% 
  tally() %>% 
  arrange(desc(n))
```

    ## # A tibble: 203 x 2
    ##    Department            n
    ##    <fct>             <int>
    ##  1 Law School          123
    ##  2 Nursing              92
    ##  3 Mathematics          90
    ##  4 English              83
    ##  5 Medicine             83
    ##  6 Social Work          79
    ##  7 Pharmacy             73
    ##  8 Computer Sciences    65
    ##  9 Chemistry            62
    ## 10 History              60
    ## # … with 193 more rows
